[gd_resource type="TileSet" load_steps=43 format=2]

[ext_resource path="res://assets/woods/grass_tileset.png" type="Texture" id=1]
[ext_resource path="res://assets/woods/gras_test.png" type="Texture" id=2]

[sub_resource type="ConvexPolygonShape2D" id=1]
points = PoolVector2Array( 180, 0, 180, 60, 120, 60, 120, 0 )

[sub_resource type="ConvexPolygonShape2D" id=2]
points = PoolVector2Array( 60, 0, 60, 60, 0, 60, 0, 0 )

[sub_resource type="ConvexPolygonShape2D" id=3]
points = PoolVector2Array( 0, 60, 0, 0, 0, 0, 31.8831, 35.33, 47.9325, 59.9897 )

[sub_resource type="ConvexPolygonShape2D" id=4]
points = PoolVector2Array( 0, 0, 960, 0, 960, 300, 0, 300 )

[sub_resource type="ConvexPolygonShape2D" id=5]
points = PoolVector2Array( 0, 0, 60, 0, 60, 60, 0, 60 )

[sub_resource type="ConvexPolygonShape2D" id=6]
points = PoolVector2Array( 60, 60, 0, 60, 0, 0, 60, 0 )

[sub_resource type="ConvexPolygonShape2D" id=7]
points = PoolVector2Array( 60, 60, 0, 60, 0, 0, 60, 0 )

[sub_resource type="ConvexPolygonShape2D" id=8]
points = PoolVector2Array( 60, 60, 0, 60, 0, 0, 60, 0 )

[sub_resource type="ConvexPolygonShape2D" id=9]
points = PoolVector2Array( 60, 60, 0, 60, 0, 0, 60, 0 )

[sub_resource type="ConvexPolygonShape2D" id=10]
points = PoolVector2Array( 60, 60, 0, 60, 0, 0, 60, 0 )

[sub_resource type="ConvexPolygonShape2D" id=11]
points = PoolVector2Array( 60, 60, 0, 60, 0, 0, 60, 0 )

[sub_resource type="ConvexPolygonShape2D" id=12]
points = PoolVector2Array( 60, 60, 0, 60, 0, 0, 60, 0 )

[sub_resource type="ConvexPolygonShape2D" id=13]
points = PoolVector2Array( 60, 60, 0, 60, 0, 0, 60, 0 )

[sub_resource type="ConvexPolygonShape2D" id=14]
points = PoolVector2Array( 60, 60, 0, 60, 0, 0, 60, 0 )

[sub_resource type="ConvexPolygonShape2D" id=15]
points = PoolVector2Array( 60, 60, 0, 60, 0, 0, 60, 0 )

[sub_resource type="ConvexPolygonShape2D" id=16]
points = PoolVector2Array( 60, 60, 0, 60, 0, 0, 60, 0 )

[sub_resource type="ConvexPolygonShape2D" id=17]
points = PoolVector2Array( 60, 60, 0, 60, 0, 0, 60, 0 )

[sub_resource type="ConvexPolygonShape2D" id=18]
points = PoolVector2Array( 60, 60, 0, 60, 0, 0, 60, 0 )

[sub_resource type="ConvexPolygonShape2D" id=19]
points = PoolVector2Array( 60, 60, 0, 60, 0, 0, 60, 0 )

[sub_resource type="ConvexPolygonShape2D" id=20]
points = PoolVector2Array( 60, 60, 0, 60, 0, 0, 60, 0 )

[sub_resource type="ConvexPolygonShape2D" id=21]
points = PoolVector2Array( 60, 60, 0, 60, 0, 0, 60, 0 )

[sub_resource type="ConvexPolygonShape2D" id=22]
points = PoolVector2Array( 60, 60, 0, 60, 0, 0, 60, 0 )

[sub_resource type="ConvexPolygonShape2D" id=23]
points = PoolVector2Array( 60, 60, 0, 60, 0, 0, 60, 0 )

[sub_resource type="ConvexPolygonShape2D" id=24]
points = PoolVector2Array( 60, 60, 0, 60, 0, 0, 60, 0 )

[sub_resource type="ConvexPolygonShape2D" id=25]
points = PoolVector2Array( 60, 60, 0, 60, 0, 0, 60, 0 )

[sub_resource type="ConvexPolygonShape2D" id=26]
points = PoolVector2Array( 60, 60, 0, 60, 0, 0, 60, 0 )

[sub_resource type="ConvexPolygonShape2D" id=27]
points = PoolVector2Array( 60, 60, 0, 60, 0, 0, 60, 0 )

[sub_resource type="ConvexPolygonShape2D" id=28]
points = PoolVector2Array( 60, 60, 0, 60, 0, 0, 60, 0 )

[sub_resource type="ConvexPolygonShape2D" id=29]
points = PoolVector2Array( 60, 60, 0, 60, 0, 0, 60, 0 )

[sub_resource type="ConvexPolygonShape2D" id=30]
points = PoolVector2Array( 0, 60, 0, 0, 60, 60 )

[sub_resource type="ConvexPolygonShape2D" id=31]
points = PoolVector2Array( 0, 0, 60, 0, 60, 60, 0, 0, 60, 0 )

[sub_resource type="ConvexPolygonShape2D" id=32]
points = PoolVector2Array( 0, 0, 60, 0, 0, 60 )

[sub_resource type="ConvexPolygonShape2D" id=33]
points = PoolVector2Array( 60, 0, 60, 60, 0, 0 )

[sub_resource type="ConvexPolygonShape2D" id=34]
points = PoolVector2Array( 12.8481, 54.5039, 0, 60, 0, 0, 12.5767, 0.00546265 )

[sub_resource type="ConvexPolygonShape2D" id=35]
points = PoolVector2Array( 12.4605, 60.238, 0, 60, 0, 0, 13.0419, 0.351799 )

[sub_resource type="ConvexPolygonShape2D" id=36]
points = PoolVector2Array( 60, 60, 45.2291, 59.6889, 46.5212, 0.0933762, 60, 0 )

[sub_resource type="ConvexPolygonShape2D" id=37]
points = PoolVector2Array( 60, 60, 45.2291, 52.0167, 45.2291, 0.173401, 60, 0 )

[sub_resource type="ConvexPolygonShape2D" id=38]
points = PoolVector2Array( 60, 60, 0, 60, 0, 0, 60, 0 )

[sub_resource type="ConvexPolygonShape2D" id=39]
points = PoolVector2Array( 0, 60, 60, 0, 60, 60 )

[sub_resource type="ConvexPolygonShape2D" id=40]
points = PoolVector2Array( 60, 0, 0, 60, 0, 0 )

[resource]
0/name = "grass_tileset.png 0"
0/texture = ExtResource( 1 )
0/tex_offset = Vector2( 0, 0 )
0/modulate = Color( 1, 1, 1, 1 )
0/region = Rect2( 0, 0, 960, 300 )
0/tile_mode = 2
0/autotile/icon_coordinate = Vector2( 0, 0 )
0/autotile/tile_size = Vector2( 60, 60 )
0/autotile/spacing = 0
0/autotile/occluder_map = [  ]
0/autotile/navpoly_map = [  ]
0/autotile/priority_map = [  ]
0/autotile/z_index_map = [  ]
0/occluder_offset = Vector2( 0, 0 )
0/navigation_offset = Vector2( 0, 0 )
0/shape_offset = Vector2( 0, 0 )
0/shape_transform = Transform2D( 1, 0, 0, 1, 0, 0 )
0/shape = SubResource( 1 )
0/shape_one_way = false
0/shape_one_way_margin = 1.0
0/shapes = [ {
"autotile_coord": Vector2( 0, 0 ),
"one_way": false,
"one_way_margin": 1.0,
"shape": SubResource( 1 ),
"shape_transform": Transform2D( 1, 0, 0, 1, 0, 0 )
}, {
"autotile_coord": Vector2( 2, 1 ),
"one_way": false,
"one_way_margin": 1.0,
"shape": SubResource( 2 ),
"shape_transform": Transform2D( 1, 0, 0, 1, 0, 0 )
}, {
"autotile_coord": Vector2( 3, 0 ),
"one_way": false,
"one_way_margin": 1.0,
"shape": SubResource( 3 ),
"shape_transform": Transform2D( 1, 0, 0, 1, 0, 0 )
}, {
"autotile_coord": Vector2( 15, 4 ),
"one_way": false,
"one_way_margin": 1.0,
"shape": SubResource( 4 ),
"shape_transform": Transform2D( 1, 0, 0, 1, 0, 0 )
} ]
0/z_index = 0
1/name = "grass_tileset.png 1"
1/texture = ExtResource( 1 )
1/tex_offset = Vector2( 0, 0 )
1/modulate = Color( 1, 1, 1, 1 )
1/region = Rect2( 0, 0, 960, 300 )
1/tile_mode = 2
1/autotile/icon_coordinate = Vector2( 0, 0 )
1/autotile/tile_size = Vector2( 60, 60 )
1/autotile/spacing = 0
1/autotile/occluder_map = [  ]
1/autotile/navpoly_map = [  ]
1/autotile/priority_map = [  ]
1/autotile/z_index_map = [  ]
1/occluder_offset = Vector2( 0, 0 )
1/navigation_offset = Vector2( 0, 0 )
1/shape_offset = Vector2( 0, 0 )
1/shape_transform = Transform2D( 1, 0, 0, 1, 0, 0 )
1/shape = SubResource( 5 )
1/shape_one_way = false
1/shape_one_way_margin = 1.0
1/shapes = [ {
"autotile_coord": Vector2( 0, 0 ),
"one_way": false,
"one_way_margin": 1.0,
"shape": SubResource( 5 ),
"shape_transform": Transform2D( 1, 0, 0, 1, 0, 0 )
}, {
"autotile_coord": Vector2( 0, 1 ),
"one_way": false,
"one_way_margin": 1.0,
"shape": SubResource( 6 ),
"shape_transform": Transform2D( 1, 0, 0, 1, 0, 0 )
}, {
"autotile_coord": Vector2( 2, 1 ),
"one_way": false,
"one_way_margin": 1.0,
"shape": SubResource( 7 ),
"shape_transform": Transform2D( 1, 0, 0, 1, 0, 0 )
}, {
"autotile_coord": Vector2( 2, 0 ),
"one_way": false,
"one_way_margin": 1.0,
"shape": SubResource( 8 ),
"shape_transform": Transform2D( 1, 0, 0, 1, 0, 0 )
}, {
"autotile_coord": Vector2( 3, 1 ),
"one_way": false,
"one_way_margin": 1.0,
"shape": SubResource( 9 ),
"shape_transform": Transform2D( 1, 0, 0, 1, 0, 0 )
}, {
"autotile_coord": Vector2( 3, 2 ),
"one_way": false,
"one_way_margin": 1.0,
"shape": SubResource( 10 ),
"shape_transform": Transform2D( 1, 0, 0, 1, 0, 0 )
}, {
"autotile_coord": Vector2( 3, 3 ),
"one_way": false,
"one_way_margin": 1.0,
"shape": SubResource( 11 ),
"shape_transform": Transform2D( 1, 0, 0, 1, 0, 0 )
}, {
"autotile_coord": Vector2( 4, 3 ),
"one_way": false,
"one_way_margin": 1.0,
"shape": SubResource( 12 ),
"shape_transform": Transform2D( 1, 0, 0, 1, 0, 0 )
}, {
"autotile_coord": Vector2( 5, 3 ),
"one_way": false,
"one_way_margin": 1.0,
"shape": SubResource( 13 ),
"shape_transform": Transform2D( 1, 0, 0, 1, 0, 0 )
}, {
"autotile_coord": Vector2( 6, 3 ),
"one_way": false,
"one_way_margin": 1.0,
"shape": SubResource( 14 ),
"shape_transform": Transform2D( 1, 0, 0, 1, 0, 0 )
}, {
"autotile_coord": Vector2( 7, 3 ),
"one_way": false,
"one_way_margin": 1.0,
"shape": SubResource( 15 ),
"shape_transform": Transform2D( 1, 0, 0, 1, 0, 0 )
}, {
"autotile_coord": Vector2( 8, 3 ),
"one_way": false,
"one_way_margin": 1.0,
"shape": SubResource( 16 ),
"shape_transform": Transform2D( 1, 0, 0, 1, 0, 0 )
}, {
"autotile_coord": Vector2( 4, 4 ),
"one_way": false,
"one_way_margin": 1.0,
"shape": SubResource( 17 ),
"shape_transform": Transform2D( 1, 0, 0, 1, 0, 0 )
}, {
"autotile_coord": Vector2( 5, 4 ),
"one_way": false,
"one_way_margin": 1.0,
"shape": SubResource( 18 ),
"shape_transform": Transform2D( 1, 0, 0, 1, 0, 0 )
}, {
"autotile_coord": Vector2( 6, 4 ),
"one_way": false,
"one_way_margin": 1.0,
"shape": SubResource( 19 ),
"shape_transform": Transform2D( 1, 0, 0, 1, 0, 0 )
}, {
"autotile_coord": Vector2( 7, 4 ),
"one_way": false,
"one_way_margin": 1.0,
"shape": SubResource( 20 ),
"shape_transform": Transform2D( 1, 0, 0, 1, 0, 0 )
}, {
"autotile_coord": Vector2( 8, 4 ),
"one_way": false,
"one_way_margin": 1.0,
"shape": SubResource( 21 ),
"shape_transform": Transform2D( 1, 0, 0, 1, 0, 0 )
}, {
"autotile_coord": Vector2( 11, 3 ),
"one_way": false,
"one_way_margin": 1.0,
"shape": SubResource( 22 ),
"shape_transform": Transform2D( 1, 0, 0, 1, 0, 0 )
}, {
"autotile_coord": Vector2( 12, 3 ),
"one_way": false,
"one_way_margin": 1.0,
"shape": SubResource( 23 ),
"shape_transform": Transform2D( 1, 0, 0, 1, 0, 0 )
}, {
"autotile_coord": Vector2( 11, 4 ),
"one_way": false,
"one_way_margin": 1.0,
"shape": SubResource( 24 ),
"shape_transform": Transform2D( 1, 0, 0, 1, 0, 0 )
}, {
"autotile_coord": Vector2( 12, 4 ),
"one_way": false,
"one_way_margin": 1.0,
"shape": SubResource( 25 ),
"shape_transform": Transform2D( 1, 0, 0, 1, 0, 0 )
}, {
"autotile_coord": Vector2( 13, 3 ),
"one_way": false,
"one_way_margin": 1.0,
"shape": SubResource( 26 ),
"shape_transform": Transform2D( 1, 0, 0, 1, 0, 0 )
}, {
"autotile_coord": Vector2( 13, 2 ),
"one_way": false,
"one_way_margin": 1.0,
"shape": SubResource( 27 ),
"shape_transform": Transform2D( 1, 0, 0, 1, 0, 0 )
}, {
"autotile_coord": Vector2( 13, 1 ),
"one_way": false,
"one_way_margin": 1.0,
"shape": SubResource( 28 ),
"shape_transform": Transform2D( 1, 0, 0, 1, 0, 0 )
}, {
"autotile_coord": Vector2( 14, 1 ),
"one_way": false,
"one_way_margin": 1.0,
"shape": SubResource( 29 ),
"shape_transform": Transform2D( 1, 0, 0, 1, 0, 0 )
}, {
"autotile_coord": Vector2( 3, 0 ),
"one_way": false,
"one_way_margin": 1.0,
"shape": SubResource( 30 ),
"shape_transform": Transform2D( 1, 0, 0, 1, 0, 0 )
}, {
"autotile_coord": Vector2( 0, 2 ),
"one_way": false,
"one_way_margin": 1.0,
"shape": SubResource( 31 ),
"shape_transform": Transform2D( 1, 0, 0, 1, 0, 0 )
}, {
"autotile_coord": Vector2( 0, 4 ),
"one_way": false,
"one_way_margin": 1.0,
"shape": SubResource( 32 ),
"shape_transform": Transform2D( 1, 0, 0, 1, 0, 0 )
}, {
"autotile_coord": Vector2( 3, 4 ),
"one_way": false,
"one_way_margin": 1.0,
"shape": SubResource( 33 ),
"shape_transform": Transform2D( 1, 0, 0, 1, 0, 0 )
}, {
"autotile_coord": Vector2( 7, 2 ),
"one_way": false,
"one_way_margin": 1.0,
"shape": SubResource( 34 ),
"shape_transform": Transform2D( 1, 0, 0, 1, 0, 0 )
}, {
"autotile_coord": Vector2( 7, 1 ),
"one_way": false,
"one_way_margin": 1.0,
"shape": SubResource( 35 ),
"shape_transform": Transform2D( 1, 0, 0, 1, 0, 0 )
}, {
"autotile_coord": Vector2( 8, 1 ),
"one_way": false,
"one_way_margin": 1.0,
"shape": SubResource( 36 ),
"shape_transform": Transform2D( 1, 0, 0, 1, 0, 0 )
}, {
"autotile_coord": Vector2( 8, 2 ),
"one_way": false,
"one_way_margin": 1.0,
"shape": SubResource( 37 ),
"shape_transform": Transform2D( 1, 0, 0, 1, 0, 0 )
}, {
"autotile_coord": Vector2( 14, 0 ),
"one_way": false,
"one_way_margin": 1.0,
"shape": SubResource( 38 ),
"shape_transform": Transform2D( 1, 0, 0, 1, 0, 0 )
}, {
"autotile_coord": Vector2( 13, 0 ),
"one_way": false,
"one_way_margin": 1.0,
"shape": SubResource( 39 ),
"shape_transform": Transform2D( 1, 0, 0, 1, 0, 0 )
}, {
"autotile_coord": Vector2( 13, 4 ),
"one_way": false,
"one_way_margin": 1.0,
"shape": SubResource( 40 ),
"shape_transform": Transform2D( 1, 0, 0, 1, 0, 0 )
} ]
1/z_index = 0
2/name = "grass_tileset.png 2"
2/texture = ExtResource( 1 )
2/tex_offset = Vector2( 0, 0 )
2/modulate = Color( 1, 1, 1, 1 )
2/region = Rect2( 240, 60, 180, 120 )
2/tile_mode = 2
2/autotile/icon_coordinate = Vector2( 0, 0 )
2/autotile/tile_size = Vector2( 60, 60 )
2/autotile/spacing = 0
2/autotile/occluder_map = [  ]
2/autotile/navpoly_map = [  ]
2/autotile/priority_map = [  ]
2/autotile/z_index_map = [  ]
2/occluder_offset = Vector2( 0, 0 )
2/navigation_offset = Vector2( 0, 0 )
2/shape_offset = Vector2( 0, 0 )
2/shape_transform = Transform2D( 1, 0, 0, 1, 0, 0 )
2/shape_one_way = false
2/shape_one_way_margin = 0.0
2/shapes = [  ]
2/z_index = 0
3/name = "gras_test.png 3"
3/texture = ExtResource( 2 )
3/tex_offset = Vector2( 0, 0 )
3/modulate = Color( 1, 1, 1, 1 )
3/region = Rect2( 0, 0, 780, 360 )
3/tile_mode = 2
3/autotile/icon_coordinate = Vector2( 0, 0 )
3/autotile/tile_size = Vector2( 60, 60 )
3/autotile/spacing = 0
3/autotile/occluder_map = [  ]
3/autotile/navpoly_map = [  ]
3/autotile/priority_map = [  ]
3/autotile/z_index_map = [  ]
3/occluder_offset = Vector2( 0, 0 )
3/navigation_offset = Vector2( 0, 0 )
3/shape_offset = Vector2( 0, 0 )
3/shape_transform = Transform2D( 1, 0, 0, 1, 0, 0 )
3/shape_one_way = false
3/shape_one_way_margin = 0.0
3/shapes = [  ]
3/z_index = 0
