[gd_scene load_steps=5 format=2]

[ext_resource path="res://assets/ruins/pot_ruin.png" type="Texture" id=1]
[ext_resource path="res://assets/ruins/pot_flower.png" type="Texture" id=2]
[ext_resource path="res://assets/ruins/pot.png" type="Texture" id=3]
[ext_resource path="res://assets/ruins/pot_leaves.png" type="Texture" id=4]

[node name="Deko" type="StaticBody2D"]
position = Vector2( 1052.59, 423.845 )
scale = Vector2( 0.7, 0.7 )

[node name="old" type="Sprite" parent="."]
position = Vector2( -1.08496, 2.4852 )
texture = ExtResource( 1 )

[node name="CollisionPolygon2D" type="CollisionPolygon2D" parent="."]
position = Vector2( -1512.34, -617.872 )
polygon = PoolVector2Array( 1440.95, 613.987, 1443.49, 680.805, 1492.49, 699.259, 1530.68, 697.35, 1579.67, 676.35, 1584.77, 613.351, 1557.4, 587.26, 1517.95, 578.988, 1464.49, 585.988 )

[node name="new" type="Sprite" parent="."]
light_mask = 32
texture = ExtResource( 3 )

[node name="green" type="Sprite" parent="."]
light_mask = 512
texture = ExtResource( 4 )

[node name="purple" type="Sprite" parent="."]
light_mask = 64
texture = ExtResource( 2 )
