[gd_scene load_steps=9 format=2]

[ext_resource path="res://river/river.tscn" type="PackedScene" id=1]
[ext_resource path="res://player/player.tscn" type="PackedScene" id=2]
[ext_resource path="res://desert/desert.tscn" type="PackedScene" id=3]
[ext_resource path="res://swamp/swamp.tscn" type="PackedScene" id=4]
[ext_resource path="res://volcano/volcano.tscn" type="PackedScene" id=5]
[ext_resource path="res://ruins/ruins.tscn" type="PackedScene" id=6]
[ext_resource path="res://intro_dialogs.tscn" type="PackedScene" id=7]
[ext_resource path="res://woods/woods.tscn" type="PackedScene" id=11]

[node name="Main" type="YSort"]

[node name="Desert" parent="." instance=ExtResource( 3 )]
position = Vector2( 506.03, -7.12708 )

[node name="Swamp" parent="." instance=ExtResource( 4 )]
position = Vector2( 5607.8, -3047.37 )

[node name="Volcano" parent="." instance=ExtResource( 5 )]
position = Vector2( 316.797, -5782.07 )

[node name="Woods" parent="." instance=ExtResource( 11 )]
position = Vector2( -6834.67, 586.629 )

[node name="River" parent="." instance=ExtResource( 1 )]
position = Vector2( 4089.95, 11.3353 )

[node name="Ruins" parent="." instance=ExtResource( 6 )]
position = Vector2( -9274.98, -2710.07 )

[node name="Player" parent="." instance=ExtResource( 2 )]
position = Vector2( 1979.44, 1127.82 )
speed = 15000

[node name="IntroDialogs" parent="." instance=ExtResource( 7 )]
