[gd_scene load_steps=5 format=2]

[ext_resource path="res://gfx/endScreen.png" type="Texture" id=1]
[ext_resource path="res://fonts/Merienda/Merienda-Regular.ttf" type="DynamicFontData" id=2]
[ext_resource path="res://assets/desert/cauldron-rainbowjam.png" type="Texture" id=3]

[sub_resource type="DynamicFont" id=1]
size = 40
font_data = ExtResource( 2 )

[node name="ColorRect" type="ColorRect"]
margin_right = 1994.0
margin_bottom = 1177.0
__meta__ = {
"_edit_use_anchors_": false
}

[node name="Sprite" type="Sprite" parent="."]
position = Vector2( 1070.95, 514.553 )
scale = Vector2( 0.6, 0.6 )
texture = ExtResource( 1 )

[node name="RichTextLabel" type="RichTextLabel" parent="."]
margin_left = 76.2272
margin_top = 79.8082
margin_right = 1220.23
margin_bottom = 502.808
custom_fonts/normal_font = SubResource( 1 )
custom_colors/default_color = Color( 0, 0, 0, 1 )
text = "You did it! You helped everyone work together to find all ingredients.

Now, you can all enjoy rainbow jam on toast, together!"
__meta__ = {
"_edit_use_anchors_": false
}

[node name="cauldron-rainbowjam" type="Sprite" parent="."]
position = Vector2( 297.163, 578.482 )
texture = ExtResource( 3 )
