[gd_scene load_steps=5 format=2]

[ext_resource path="res://characters/aura/aura.gd" type="Script" id=1]
[ext_resource path="res://music/music.tscn" type="PackedScene" id=2]
[ext_resource path="res://characters/aura/aura.png" type="Texture" id=3]
[ext_resource path="res://characters/aura/visible-aura.png" type="Texture" id=4]

[node name="Aura" type="Light2D"]
light_mask = 0
position = Vector2( 2.71826, 0 )
texture = ExtResource( 3 )
mode = 2
range_item_cull_mask = 0
script = ExtResource( 1 )

[node name="visible-aura" type="Sprite" parent="."]
position = Vector2( -13.339, 17.7854 )
scale = Vector2( 1.8, 1.8 )
texture = ExtResource( 4 )

[node name="CircleSizeTween" type="Tween" parent="."]

[node name="Music" parent="." instance=ExtResource( 2 )]
pause_mode = 2
autoplay = false
bus = "Aura"
