[gd_scene load_steps=5 format=2]

[ext_resource path="res://ruins/people/time_guy.tscn" type="PackedScene" id=1]
[ext_resource path="res://dialog/dialog.tscn" type="PackedScene" id=2]
[ext_resource path="res://ruins/people/bridgist.gd" type="Script" id=4]
[ext_resource path="res://questlog/quest.tscn" type="PackedScene" id=5]

[node name="Bridgist" type="YSort"]
script = ExtResource( 4 )

[node name="TimeGuy" parent="." instance=ExtResource( 1 )]

[node name="Dialog" parent="." instance=ExtResource( 2 )]
dialog_text = "I want to go home.
Can you bring me to the ancient stone bridge in the west? "
first_button_text = "Yes"
second_button_text = "No"

[node name="Quest" parent="." instance=ExtResource( 5 )]
description = "The bridgist wants to go home.
Take the bridgist to the ancient stone bridge in the west."

[node name="ThankYou" parent="." instance=ExtResource( 2 )]
dialog_text = "Yeah, this is my home country. And this bridge! I love the view from this bridge. I will stay here a little longer. Go ahead and visit my hometown, it is quite impressive."
first_button_text = "Okay, bye!"

[node name="AfterQuestDialog" parent="." instance=ExtResource( 2 )]
dialog_text = "Thank you again for taking me to my favourite bridge!"
first_button_text = "Thanks for your company on my journey!"
[connection signal="talk" from="TimeGuy" to="." method="talk"]
[connection signal="first_button_pressed" from="Dialog" to="." method="start_following"]
