[gd_scene load_steps=3 format=2]

[ext_resource path="res://ruins/people/time_guy.tscn" type="PackedScene" id=1]
[ext_resource path="res://dialog/dialog.tscn" type="PackedScene" id=2]

[node name="SecondPavilionist" type="Node2D"]

[node name="TimeGuy" parent="." instance=ExtResource( 1 )]

[node name="Dialog" parent="." instance=ExtResource( 2 )]
dialog_text = "We are very introverted and don't want to talk."
first_button_text = "that's ok, you don't have to"
[connection signal="talk" from="TimeGuy" to="Dialog" method="show"]
