[gd_scene load_steps=6 format=2]

[ext_resource path="res://dialog/dialog.tscn" type="PackedScene" id=1]
[ext_resource path="res://characters/communication/communication_area.tscn" type="PackedScene" id=2]
[ext_resource path="res://characters/aura/aura.tscn" type="PackedScene" id=3]
[ext_resource path="res://assets/woods/leaf.png" type="Texture" id=4]

[sub_resource type="RectangleShape2D" id=1]
extents = Vector2( 28.981, 29.5231 )

[node name="LeafGreen" type="StaticBody2D"]
position = Vector2( 3812.44, 973.907 )
__meta__ = {
"_edit_group_": true
}

[node name="Sprite" type="Sprite" parent="."]
position = Vector2( 5.29443, -38.8577 )
scale = Vector2( 0.6, 0.6 )
texture = ExtResource( 4 )

[node name="CollisionShape2D" type="CollisionShape2D" parent="."]
position = Vector2( 0.45459, -1.427 )
shape = SubResource( 1 )

[node name="Aura" parent="." instance=ExtResource( 3 )]
aura_type = 50

[node name="CommunicationArea" parent="." instance=ExtResource( 2 )]

[node name="Dialog" parent="." instance=ExtResource( 1 )]
dialog_text = "My friend moved to the east to plant new forests there."
first_button_text = "More forests should be planted."
[connection signal="talk" from="CommunicationArea" to="Dialog" method="show"]
