[gd_scene load_steps=6 format=2]

[ext_resource path="res://assets/ruins/dodoSitting.png" type="Texture" id=1]
[ext_resource path="res://river/dodo_water.gd" type="Script" id=2]
[ext_resource path="res://characters/communication/communication_area.tscn" type="PackedScene" id=3]
[ext_resource path="res://dialog/dialog.tscn" type="PackedScene" id=4]

[sub_resource type="RectangleShape2D" id=1]
extents = Vector2( 27.4126, 20.2939 )

[node name="DodoWater" type="StaticBody2D"]
position = Vector2( 2.83057, -12.7328 )
script = ExtResource( 2 )

[node name="Sprite" type="Sprite" parent="."]
scale = Vector2( 0.6, 0.6 )
texture = ExtResource( 1 )

[node name="CollisionShape2D" type="CollisionShape2D" parent="."]
position = Vector2( 7.13525, 17.8381 )
shape = SubResource( 1 )

[node name="CommunicationArea" parent="." instance=ExtResource( 3 )]
position = Vector2( -4.36624, 58.8482 )

[node name="Dialog" parent="." instance=ExtResource( 4 )]
dialog_text = "A duck family."
first_button_text = "A nice duck family."
second_button_text = "Wait…"

[node name="QuestDialog" parent="." instance=ExtResource( 4 )]
dialog_text = "A duck family."
first_button_text = "A nice duck family."
second_button_text = "Wait... it's a duck? It's a chicken? ... It's a DODO!"

[node name="DialogEnclosure" parent="." instance=ExtResource( 4 )]
dialog_text = "Dodo?"
first_button_text = "Dodo!"
[connection signal="talk" from="CommunicationArea" to="." method="wasFound"]
[connection signal="second_button_pressed" from="QuestDialog" to="." method="sentToDodoEnclosure"]
