[gd_scene load_steps=3 format=2]

[ext_resource path="res://trigger_area/trigger_area.gd" type="Script" id=1]

[sub_resource type="CapsuleShape2D" id=1]
radius = 75.0
height = 100.0

[node name="TriggerArea" type="Area2D"]
collision_layer = 0
collision_mask = 32
script = ExtResource( 1 )

[node name="CollisionShape2D" type="CollisionShape2D" parent="."]
shape = SubResource( 1 )
[connection signal="body_entered" from="." to="." method="body_entered"]
[connection signal="body_exited" from="." to="." method="body_exited"]
