[gd_scene load_steps=4 format=2]

[ext_resource path="res://questlog/questlog_theme.tres" type="Theme" id=1]
[ext_resource path="res://questlog/ingredient.gd" type="Script" id=3]
[ext_resource path="res://questlog/missing_ingredient_shader.tres" type="Material" id=4]

[node name="Ingredient" type="Control"]
theme = ExtResource( 1 )
script = ExtResource( 3 )
__meta__ = {
"_edit_use_anchors_": false
}

[node name="Sprite" type="Sprite" parent="."]
material = ExtResource( 4 )
scale = Vector2( 0.75, 0.75 )

[node name="Label" type="RichTextLabel" parent="."]
self_modulate = Color( 1, 1, 1, 0.498039 )
margin_left = 72.0
margin_top = -40.0
margin_right = 424.0
margin_bottom = 55.0
custom_constants/line_separation = -4
bbcode_enabled = true
__meta__ = {
"_edit_use_anchors_": false
}
