[gd_scene load_steps=2 format=2]

[ext_resource path="res://gfx/invisibility-cloak.png" type="Texture" id=1]

[node name="InivisibilityCloak" type="Light2D"]
texture = ExtResource( 1 )
mode = 3
range_item_cull_mask = 992
