[gd_scene load_steps=4 format=2]

[ext_resource path="res://assets/woods/bush1_dried.png" type="Texture" id=1]
[ext_resource path="res://assets/woods/bush1_berries.png" type="Texture" id=2]
[ext_resource path="res://assets/woods/bush1_leaves.png" type="Texture" id=3]

[node name="Bush" type="StaticBody2D"]
position = Vector2( 2548.79, 1601.67 )
scale = Vector2( 1.2, 1.2 )
__meta__ = {
"_edit_group_": true
}

[node name="Dried" type="Sprite" parent="."]
position = Vector2( 10.2891, -33.9999 )
scale = Vector2( 0.5, 0.5 )
texture = ExtResource( 1 )

[node name="CollisionPolygon2D" type="CollisionPolygon2D" parent="."]
position = Vector2( -6.4272, -27.3766 )
polygon = PoolVector2Array( 59.9597, 22.5289, 35.9326, 34.5425, -14.7915, 33.8746, -31.4768, 20.5267, -32.8115, -16.8489, -12.1216, -37.5388, 32.5955, -38.2063, 61.9622, -10.1747 )

[node name="Leaves" type="Sprite" parent="."]
light_mask = 512
position = Vector2( 8.00659, -33.2015 )
scale = Vector2( 0.5, 0.5 )
texture = ExtResource( 3 )

[node name="Berries" type="Sprite" parent="."]
light_mask = 128
position = Vector2( 8.00684, -34.5364 )
scale = Vector2( 0.5, 0.5 )
texture = ExtResource( 2 )
