[gd_scene load_steps=9 format=2]

[ext_resource path="res://dialog/dialog.tscn" type="PackedScene" id=1]
[ext_resource path="res://characters/aura/aura.tscn" type="PackedScene" id=2]
[ext_resource path="res://swamp/people/drug_frog.gd" type="Script" id=3]
[ext_resource path="res://characters/follower/follower.tscn" type="PackedScene" id=4]
[ext_resource path="res://trigger_area/trigger_area.tscn" type="PackedScene" id=8]
[ext_resource path="res://swamp/drugfrog1.png" type="Texture" id=9]
[ext_resource path="res://swamp/drugfrog2.png" type="Texture" id=10]

[sub_resource type="SpriteFrames" id=1]
animations = [ {
"frames": [ ExtResource( 9 ), ExtResource( 10 ) ],
"loop": true,
"name": "default",
"speed": 3.0
} ]

[node name="DrugFrog" type="Node2D"]
position = Vector2( 965.916, 2144.28 )
script = ExtResource( 3 )

[node name="DrugFrogAnimation" type="AnimatedSprite" parent="."]
position = Vector2( 3.24573, -12.8967 )
scale = Vector2( 0.5, 0.5 )
frames = SubResource( 1 )
frame = 1
playing = true

[node name="Follower" parent="." instance=ExtResource( 4 )]
position = Vector2( 22.8726, 0.508545 )

[node name="TriggerArea" parent="." instance=ExtResource( 8 )]
position = Vector2( -11.4484, 14.2407 )
rotation = -0.523598

[node name="Aura" parent="." instance=ExtResource( 2 )]
position = Vector2( 0, 0 )
range_item_cull_mask = 64
aura_type = 20

[node name="Dialog" parent="." instance=ExtResource( 1 )]
dialog_text = "I am a frog.
I wish you a wonderful day."
first_button_text = "same to you"
[connection signal="player_entered" from="TriggerArea" to="." method="player_entered"]
